Select_Pascal_HOG
Warning: No display specified.  You will not be able to display graphics on the screen.
Warning: No window system found.  Java option 'MWT' ignored.

                            < M A T L A B (R) >
                  Copyright 1984-2013 The MathWorks, Inc.
                    R2013b (8.2.0.701) 64-bit (glnxa64)
                              August 13, 2013

Warning: X does not support locale en_IN
No window system found.  Java option 'MWT' ignored.
 
To get started, type one of these: helpwin, helpdesk, or demo.
For product information, visit www.mathworks.com.
 
airplane
bicycle
flying bird
sailboat
wine-bottle
bus
car
cat
chair
cow
table
dog
horse
motorbike
person
potted plant
sheep
sofa_remove
train
tv
>> 