Select_TUB_CNN
Warning: No display specified.  You will not be able to display graphics on the screen.
Warning: No window system found.  Java option 'MWT' ignored.

                            < M A T L A B (R) >
                  Copyright 1984-2013 The MathWorks, Inc.
                    R2013b (8.2.0.701) 64-bit (glnxa64)
                              August 13, 2013

Warning: X does not support locale en_IN
No window system found.  Java option 'MWT' ignored.
 
To get started, type one of these: helpwin, helpdesk, or demo.
For product information, visit www.mathworks.com.
 
airplane
     0     0

bicycle
    80     1

flying bird
   160     1

sailboat
   240     1

wine-bottle
   320     1

bus
   400     1

car
   560     1

cat
   800     1

chair
   880     1

cow
        1040           1

table
        1120           1

dog
        1280           1

horse
        1440           1

motorbike
        1520           1

person
        1600           1

potted plant
        1760           1

sheep
        1840           1

sofa
        1920           1

train
        1920           1

tv
        2000           1

>> 